<?xml version="1.0" encoding="utf-8"?>
<!-- Generator: Adobe Illustrator 16.0.0, SVG Export Plug-In . SVG Version: 6.00 Build 0)  -->
<!DOCTYPE svg PUBLIC "-//W3C//DTD SVG 1.1//EN" "http://www.w3.org/Graphics/SVG/1.1/DTD/svg11.dtd">
<svg version="1.1" id="Calque_1" xmlns="http://www.w3.org/2000/svg" xmlns:xlink="http://www.w3.org/1999/xlink" x="0px" y="0px"
	 width="54px" height="44px" viewBox="0 0 74.937 61.452" enable-background="new 0 0 74.937 61.452" xml:space="preserve">
<polyline fill="#6EC600" points="41.802,54.224 22.991,54.224 22.991,46.034 41.802,46.034 "/>
<polyline fill="none" stroke="#262626" stroke-width="1.5" stroke-linejoin="round" stroke-miterlimit="10" points="41.802,54.224 
	22.991,54.224 22.991,46.034 41.802,46.034 "/>
<g>
	<defs>
		<rect id="SVGID_1_" width="74.937" height="61.452"/>
	</defs>
	<clipPath id="SVGID_2_">
		<use xlink:href="#SVGID_1_"  overflow="visible"/>
	</clipPath>
	
		<path clip-path="url(#SVGID_2_)" fill="none" stroke="#262626" stroke-width="1.5" stroke-linejoin="round" stroke-miterlimit="10" d="
		M28.46,27.626l0.002-24.041c0-1.559-1.275-2.834-2.834-2.835h-1.331c-1.56,0-2.838,1.274-2.838,2.834v5.235"/>
	
		<path clip-path="url(#SVGID_2_)" fill="none" stroke="#262626" stroke-width="1.5" stroke-linejoin="round" stroke-miterlimit="10" d="
		M35.46,27.626l0.002-20.837c0-1.559-1.275-2.835-2.835-2.835h-1.331c-1.559,0-2.837,1.276-2.837,2.835v3.03"/>
	
		<path clip-path="url(#SVGID_2_)" fill="none" stroke="#262626" stroke-width="1.5" stroke-linejoin="round" stroke-miterlimit="10" d="
		M21.459,27.626l0.002-18.564c0.001-1.559-1.274-2.834-2.834-2.834h-1.331c-1.559,0-2.834,1.275-2.834,2.834l-0.003,23.827
		l-6.653-8.125c-1.184-1.449-3.369-1.705-4.856-0.57L2.13,24.82c-1.488,1.135-1.826,3.317-0.751,4.848L13.319,46.7v14l29.141,0.002
		V12.437c0-1.559-1.275-2.834-2.834-2.834h-1.331c-1.56,0-2.836,1.275-2.836,2.834v7.195"/>
	
		<path clip-path="url(#SVGID_2_)" fill="none" stroke="#262626" stroke-width="1.5" stroke-linejoin="round" stroke-miterlimit="10" d="
		M52.554,31.582L71.39,17.29c1.242-0.942,1.486-2.729,0.545-3.972l-0.805-1.059c-0.943-1.243-2.73-1.491-3.973-0.549l-4.171,3.165"
		/>
	
		<path clip-path="url(#SVGID_2_)" fill="none" stroke="#262626" stroke-width="1.5" stroke-linejoin="round" stroke-miterlimit="10" d="
		M56.785,37.157l16.284-12.355c1.242-0.943,1.486-2.729,0.544-3.971l-0.806-1.061c-0.941-1.242-2.73-1.488-3.973-0.546l-2.414,1.832
		"/>
	
		<path clip-path="url(#SVGID_2_)" fill="none" stroke="#262626" stroke-width="1.5" stroke-linejoin="round" stroke-miterlimit="10" d="
		M47.497,52.996l25.305-19.204c1.241-0.943,1.486-2.73,0.544-3.972l-0.806-1.06c-0.942-1.242-2.731-1.488-3.973-0.546l-5.73,4.351"
		/>
	
		<path clip-path="url(#SVGID_2_)" fill="none" stroke="#262626" stroke-width="1.5" stroke-linejoin="round" stroke-miterlimit="10" d="
		M48.321,26.006l14.473-10.982c1.242-0.942,1.487-2.729,0.545-3.971l-0.805-1.061c-0.942-1.241-2.729-1.486-3.972-0.544
		l-11.06,8.393"/>
</g>
</svg>
