<?xml version="1.0" encoding="utf-8"?>
<!-- Generator: Adobe Illustrator 19.2.1, SVG Export Plug-In . SVG Version: 6.00 Build 0)  -->
<svg version="1.1" id="Layer_1" xmlns="http://www.w3.org/2000/svg" xmlns:xlink="http://www.w3.org/1999/xlink" x="0px" y="0px" width="9px" height="13px"
	 viewBox="0 0 11 14" style="enable-background:new 0 0 11 14;" xml:space="preserve">
<style type="text/css">
	.st0{fill:#437f34;}
</style>
<path class="st0" d="M5.5,0C2.5,0,0,2.3,0,5.2C0,10.4,5.5,14,5.5,14S11,10.8,11,5.2C11,2.3,8.5,0,5.5,0z M5.5,9.1
	c-1.7,0-3.1-1.5-3.1-3.3c0-1.8,1.4-3.3,3.1-3.3c1.7,0,3.1,1.5,3.1,3.3C8.6,7.6,7.2,9.1,5.5,9.1z"/>
</svg>
