<?xml version="1.0" encoding="utf-8"?>
<!-- Generator: Adobe Illustrator 16.0.0, SVG Export Plug-In . SVG Version: 6.00 Build 0)  -->
<!DOCTYPE svg PUBLIC "-//W3C//DTD SVG 1.1//EN" "http://www.w3.org/Graphics/SVG/1.1/DTD/svg11.dtd">
<svg version="1.1" id="Calque_1" xmlns="http://www.w3.org/2000/svg" xmlns:xlink="http://www.w3.org/1999/xlink" x="0px" y="0px"
	 width="28px" height="41px" viewBox="0 0 99.599 153.046" enable-background="new 0 0 99.599 153.046"
	 xml:space="preserve">
<g>
	<defs>
		<rect id="SVGID_1_" width="99.599" height="153.046"/>
	</defs>
	<clipPath id="SVGID_2_">
		<use xlink:href="#SVGID_1_"  overflow="visible"/>
	</clipPath>
	<path clip-path="url(#SVGID_2_)" fill="#503831" d="M97.599,78.011h-6.374c-3.181-4.841-8.868-7.816-15.084-7.816
		c-1.382,0-2.764,0.154-4.124,0.458c-3.585-5.662-9.999-9.431-17.082-10.089c0.117-5.765-0.167-11.939-2.475-17.333
		c0.534-3.652,2.955-7.747,6.775-11.495c1.239,0.991,3.191,2.052,5.921,2.051h0.106c3.16-0.032,8.171-1.423,11.891-5.237
		c4.099-4.203,5.558-10.179,5.561-14.02c0.004-6.562-3.065-11.023-5.377-13.807c-0.017-0.022-0.04-0.037-0.058-0.057
		c-0.053-0.057-0.107-0.11-0.164-0.161c-0.043-0.037-0.086-0.075-0.132-0.109c-0.063-0.046-0.13-0.086-0.197-0.125
		c-0.048-0.028-0.095-0.056-0.146-0.079c-0.07-0.034-0.146-0.059-0.223-0.083c-0.052-0.018-0.104-0.038-0.159-0.051
		c-0.074-0.018-0.149-0.025-0.226-0.034c-0.049-0.006-0.097-0.02-0.146-0.022c-0.013,0-0.024,0.003-0.038,0.003
		C75.835,0.004,75.822,0,75.807,0h-0.009c-0.084,0-0.164,0.015-0.244,0.025c-0.036,0.004-0.072,0.004-0.107,0.01
		c-0.104,0.019-0.201,0.049-0.299,0.082c-0.031,0.011-0.065,0.018-0.097,0.031c-0.091,0.036-0.175,0.084-0.258,0.132
		c-0.033,0.019-0.069,0.034-0.101,0.055c-0.11,0.073-0.214,0.156-0.308,0.25c-0.002,0.002-0.004,0.003-0.006,0.005
		c-1.766,1.778-3.72,3.384-5.806,4.769c-0.986,0.656-1.991,1.258-3.058,1.897c-1.633,0.978-3.32,1.989-4.904,3.192
		c-3.294,2.502-5.376,5.338-6.188,8.431c-0.799,3.044-0.122,7.335,1.954,10.057c-2.316,2.284-5.096,5.593-6.707,9.52
		c-0.03-0.038-0.055-0.078-0.085-0.116c-0.613-0.775-1.275-1.493-1.972-2.164c1.959-4.716,1.523-10.412-1.206-14.565
		c-2.45-3.726-6.231-6.037-9.887-8.27c-3.821-2.334-7.43-4.539-9.121-8.108c-0.009-0.02-0.025-0.034-0.035-0.052
		c-0.08-0.157-0.175-0.307-0.294-0.438c-0.016-0.017-0.035-0.03-0.051-0.047c-0.106-0.109-0.227-0.204-0.358-0.287
		c-0.038-0.024-0.076-0.049-0.117-0.071C26.4,4.26,26.248,4.192,26.08,4.15c-0.006-0.002-0.013-0.001-0.019-0.003
		c-0.02-0.005-0.041-0.004-0.06-0.009c-0.164-0.033-0.326-0.043-0.486-0.037c-0.027,0.001-0.051-0.008-0.078-0.006
		c-0.02,0.002-0.038,0.012-0.058,0.014c-0.173,0.018-0.342,0.055-0.503,0.117c-0.033,0.012-0.062,0.03-0.094,0.045
		c-0.137,0.061-0.265,0.136-0.386,0.226c-0.029,0.023-0.06,0.041-0.088,0.066c-0.132,0.11-0.249,0.238-0.35,0.381
		c-0.02,0.029-0.036,0.06-0.055,0.089c-0.081,0.131-0.148,0.272-0.198,0.423c-0.008,0.024-0.024,0.042-0.031,0.066
		c-0.007,0.022-0.011,0.045-0.018,0.069c-0.001,0.003-0.003,0.006-0.004,0.01c-0.293,1.166-0.781,2.316-1.298,3.535
		c-0.552,1.305-1.124,2.654-1.493,4.119c-0.486,1.933-0.988,3.931-1.111,6.049c-0.346,5.989,2.587,12.16,7.656,16.103
		c3.44,2.678,7.773,3.299,11.954,3.299c1.673,0,3.305-0.102,4.862-0.209c0.806,0.719,1.559,1.482,2.227,2.325
		c4.189,5.293,4.628,12.79,4.484,19.702c-7.289,0.54-13.852,4.339-17.508,10.124c-2.709-1.33-5.72-2.025-8.823-2.025
		c-7.1,0-13.53,3.652-16.715,9.388H2c-1.105,0-2,0.896-2,2v15.965c0,1.104,0.895,2,2,2h5.54l10.142,53.443
		c0.179,0.943,1.004,1.627,1.964,1.627h60.307c0.961,0,1.786-0.684,1.964-1.627l10.142-53.443h5.54c1.105,0,2-0.896,2-2V80.011
		C99.599,78.906,98.704,78.011,97.599,78.011 M74.29,25.757c-3.063,3.14-7.14,4.011-9.068,4.03h-0.063
		c-1.194,0-2.112-0.343-2.795-0.739c0.731-0.547,1.489-1.083,2.278-1.63c1.261-0.874,2.563-1.778,3.794-2.801
		c5.109-4.246,7.783-10.724,8.828-16.729c0.855,1.849,1.451,4.035,1.449,6.639C78.711,17.861,77.342,22.627,74.29,25.757
		 M58.291,19.895c0.581-2.206,2.174-4.313,4.74-6.261c1.408-1.07,2.929-1.982,4.541-2.946c1.057-0.634,2.151-1.29,3.216-1.996
		c0.894-0.596,1.762-1.232,2.61-1.896c-0.845,5.318-3.108,11.08-7.518,14.744c-1.098,0.912-2.272,1.728-3.517,2.591
		c-0.987,0.685-1.993,1.39-2.976,2.151C58.284,24.619,57.813,21.716,58.291,19.895 M34.435,16.754
		c3.431,2.097,6.672,4.077,8.629,7.055c1.768,2.689,2.209,6.409,1.268,9.653c-1.502-1.09-3.068-2.074-4.612-3.045
		c-2.977-1.873-5.789-3.642-8.012-6.016c-3.31-3.536-5.057-8.399-4.916-13.213C28.994,13.431,31.744,15.11,34.435,16.754
		 M29.862,32.251c-4.045-3.148-6.39-8.02-6.119-12.717c0.019-0.323,0.061-0.65,0.101-0.977c0.99,3.175,2.659,6.136,4.944,8.578
		c2.576,2.752,5.742,4.742,8.803,6.668c0.476,0.3,0.947,0.597,1.414,0.894C35.633,34.658,32.29,34.141,29.862,32.251 M24.603,72.623
		c3.064,0,6.009,0.841,8.518,2.433c0.481,0.303,1.066,0.389,1.613,0.236c0.546-0.154,1.002-0.533,1.253-1.043
		c2.929-5.952,9.5-9.799,16.738-9.799c7.051,0,13.549,3.712,16.557,9.457c0.449,0.857,1.443,1.271,2.368,0.982
		c1.473-0.46,2.982-0.694,4.491-0.694c3.821,0,7.374,1.41,9.907,3.816H12.706C15.445,74.668,19.823,72.623,24.603,72.623
		 M78.296,149.046H21.303l-9.692-51.07h76.377L78.296,149.046z M95.599,93.976H4V82.011h91.599V93.976z"/>
</g>
</svg>
