<?xml version="1.0" encoding="utf-8"?>
<!-- Generator: Adobe Illustrator 16.0.0, SVG Export Plug-In . SVG Version: 6.00 Build 0)  -->
<!DOCTYPE svg PUBLIC "-//W3C//DTD SVG 1.1//EN" "http://www.w3.org/Graphics/SVG/1.1/DTD/svg11.dtd">
<svg version="1.1" id="Calque_1" xmlns="http://www.w3.org/2000/svg" xmlns:xlink="http://www.w3.org/1999/xlink" x="0px" y="0px"
	 width="85.989px" height="26.358px" viewBox="0 0 85.989 26.358" enable-background="new 0 0 85.989 26.358" xml:space="preserve">
<path fill="#FFFFFF" d="M10.242,2.143c-0.215,0.189-0.538,0.282-0.968,0.282H6.528v9.032c0,0.519-0.116,0.904-0.347,1.155
	c-0.232,0.253-0.532,0.376-0.9,0.376c-0.372,0-0.677-0.125-0.912-0.38c-0.234-0.253-0.352-0.638-0.352-1.151V2.425H1.271
	c-0.429,0-0.748-0.093-0.958-0.282C0.104,1.951,0,1.702,0,1.391c0-0.322,0.107-0.577,0.327-0.763c0.217-0.186,0.532-0.28,0.944-0.28
	h8.003c0.436,0,0.76,0.096,0.972,0.289c0.212,0.193,0.317,0.442,0.317,0.754C10.563,1.702,10.456,1.951,10.242,2.143 M17.234,10.191
	c-0.215,0.582-0.525,1.083-0.932,1.5c-0.408,0.417-0.895,0.738-1.459,0.962c-0.565,0.224-1.201,0.333-1.908,0.333
	c-0.701,0-1.332-0.11-1.892-0.337C10.485,12.425,10,12.1,9.591,11.68c-0.409-0.422-0.72-0.918-0.933-1.493
	C8.445,9.614,8.339,8.98,8.339,8.284c0-0.701,0.108-1.342,0.323-1.924C8.877,5.777,9.185,5.28,9.586,4.867
	c0.402-0.412,0.888-0.729,1.458-0.952c0.57-0.225,1.202-0.338,1.892-0.338c0.701,0,1.337,0.116,1.908,0.341
	c0.57,0.225,1.059,0.548,1.467,0.966c0.407,0.418,0.716,0.916,0.928,1.492c0.212,0.576,0.317,1.212,0.317,1.907
	C17.556,8.975,17.449,9.609,17.234,10.191 M14.611,6.08c-0.417-0.527-0.975-0.79-1.675-0.79c-0.452,0-0.85,0.118-1.196,0.354
	c-0.344,0.233-0.61,0.581-0.798,1.039c-0.185,0.458-0.278,0.991-0.278,1.601c0,0.605,0.091,1.135,0.275,1.586
	c0.184,0.453,0.447,0.798,0.789,1.039c0.343,0.239,0.745,0.359,1.208,0.359c0.701,0,1.259-0.263,1.675-0.792
	c0.415-0.528,0.622-1.259,0.622-2.192C15.233,7.34,15.026,6.605,14.611,6.08 M27.206,10.229c-0.201,0.597-0.477,1.098-0.827,1.501
	c-0.35,0.405-0.764,0.717-1.242,0.933c-0.478,0.218-0.989,0.324-1.539,0.324c-0.661,0-1.216-0.131-1.665-0.397
	c-0.45-0.264-0.878-0.654-1.286-1.169v3.477c0,1.017-0.37,1.525-1.111,1.525c-0.435,0-0.723-0.131-0.864-0.394
	c-0.142-0.263-0.212-0.646-0.212-1.148V4.893c0-0.441,0.096-0.77,0.287-0.988c0.192-0.217,0.456-0.328,0.789-0.328
	c0.329,0,0.595,0.113,0.802,0.338c0.206,0.222,0.309,0.542,0.309,0.961v0.279c0.435-0.537,0.887-0.931,1.357-1.183
	c0.469-0.251,1.001-0.378,1.594-0.378c0.712,0,1.367,0.185,1.967,0.552c0.6,0.368,1.073,0.904,1.421,1.61
	c0.348,0.708,0.522,1.544,0.522,2.51C27.508,8.98,27.406,9.633,27.206,10.229 M24.903,6.669c-0.186-0.439-0.443-0.775-0.776-1.008
	c-0.33-0.236-0.696-0.353-1.096-0.353c-0.64,0-1.178,0.252-1.617,0.754c-0.437,0.504-0.656,1.244-0.656,2.221
	c0,0.922,0.217,1.639,0.653,2.148c0.434,0.515,0.975,0.768,1.62,0.768c0.384,0,0.741-0.111,1.067-0.335
	c0.329-0.223,0.591-0.557,0.789-1.004c0.198-0.447,0.295-0.986,0.295-1.618C25.182,7.629,25.09,7.106,24.903,6.669"/>
<path fill="#FFFFFF" d="M67.41,2.256l-2.069,8.368c-0.141,0.565-0.257,0.978-0.354,1.241c-0.092,0.264-0.249,0.494-0.474,0.69
	c-0.223,0.198-0.538,0.298-0.945,0.298c-0.385,0-0.693-0.096-0.924-0.288c-0.232-0.192-0.393-0.41-0.482-0.65
	c-0.09-0.24-0.216-0.651-0.382-1.232l-2.008-7.455l-2.035,7.455c-0.159,0.564-0.286,0.969-0.378,1.216
	c-0.092,0.246-0.257,0.465-0.487,0.659c-0.231,0.195-0.54,0.294-0.924,0.294c-0.313,0-0.567-0.06-0.769-0.174
	c-0.201-0.116-0.362-0.279-0.487-0.491c-0.124-0.213-0.227-0.465-0.306-0.754c-0.078-0.292-0.148-0.562-0.211-0.81l-2.067-8.368
	c-0.126-0.487-0.188-0.858-0.188-1.111c0-0.322,0.114-0.594,0.341-0.813C52.485,0.112,52.765,0,53.097,0
	c0.458,0,0.766,0.147,0.926,0.441c0.158,0.293,0.295,0.721,0.413,1.28l1.63,7.257l1.822-6.79C58.024,1.667,58.146,1.272,58.251,1
	c0.109-0.271,0.285-0.504,0.526-0.704C59.021,0.098,59.353,0,59.771,0c0.424,0,0.753,0.103,0.986,0.308
	c0.235,0.208,0.398,0.433,0.489,0.676c0.09,0.243,0.211,0.644,0.366,1.205l1.837,6.79l1.629-7.257
	c0.079-0.378,0.154-0.675,0.224-0.892c0.07-0.214,0.191-0.405,0.365-0.576C65.84,0.086,66.089,0,66.418,0
	c0.328,0,0.605,0.108,0.836,0.326c0.229,0.218,0.342,0.491,0.342,0.819C67.596,1.375,67.535,1.747,67.41,2.256 M75.674,8.458
	c-0.334,0.172-0.803,0.259-1.407,0.259H69.74c0.005,0.525,0.109,0.989,0.316,1.39c0.208,0.401,0.481,0.704,0.822,0.908
	c0.343,0.204,0.721,0.305,1.134,0.305c0.276,0,0.527-0.033,0.759-0.097c0.229-0.065,0.45-0.167,0.666-0.306
	c0.213-0.138,0.411-0.287,0.594-0.446c0.179-0.157,0.414-0.372,0.701-0.644c0.121-0.102,0.289-0.152,0.509-0.152
	c0.24,0,0.433,0.066,0.579,0.195c0.146,0.129,0.22,0.312,0.22,0.551c0,0.208-0.082,0.453-0.246,0.734
	c-0.167,0.28-0.41,0.546-0.742,0.804c-0.331,0.258-0.747,0.471-1.248,0.641c-0.501,0.17-1.075,0.255-1.726,0.255
	c-1.486,0-2.641-0.425-3.466-1.272c-0.826-0.848-1.238-1.998-1.238-3.453c0-0.682,0.102-1.317,0.305-1.901
	c0.204-0.585,0.502-1.087,0.892-1.506c0.389-0.417,0.87-0.739,1.44-0.963c0.569-0.222,1.203-0.334,1.9-0.334
	c0.904,0,1.678,0.19,2.324,0.573c0.65,0.381,1.134,0.875,1.455,1.48c0.323,0.604,0.485,1.222,0.485,1.847
	C76.174,7.908,76.009,8.286,75.674,8.458 M73.296,5.625c-0.371-0.392-0.859-0.589-1.464-0.589c-0.576,0-1.048,0.2-1.419,0.599
	c-0.37,0.398-0.594,0.989-0.673,1.768h4.195C73.879,6.61,73.664,6.019,73.296,5.625 M85.756,9.983
	c-0.177,0.586-0.437,1.093-0.776,1.521c-0.339,0.431-0.749,0.763-1.232,0.998c-0.483,0.234-1.017,0.352-1.6,0.352
	c-0.356,0-0.691-0.042-1.002-0.128c-0.316-0.086-0.581-0.195-0.803-0.334c-0.22-0.139-0.409-0.283-0.563-0.429
	c-0.157-0.147-0.361-0.368-0.616-0.663v0.229c0,0.436-0.104,0.765-0.314,0.989c-0.207,0.221-0.476,0.334-0.797,0.334
	c-0.329,0-0.589-0.113-0.782-0.334c-0.197-0.225-0.294-0.553-0.294-0.989V1.425c0-0.469,0.096-0.824,0.283-1.064
	C77.449,0.119,77.714,0,78.052,0c0.356,0,0.63,0.113,0.824,0.343c0.192,0.229,0.287,0.555,0.287,0.979v3.536
	c0.436-0.453,0.879-0.798,1.331-1.038c0.452-0.242,1.012-0.361,1.679-0.361c0.768,0,1.441,0.182,2.021,0.547
	c0.581,0.366,1.029,0.892,1.35,1.585c0.319,0.691,0.478,1.514,0.478,2.462C86.021,8.756,85.934,9.4,85.756,9.983 M83.437,6.555
	c-0.174-0.441-0.423-0.783-0.748-1.022c-0.321-0.241-0.694-0.359-1.125-0.359c-0.442,0-0.835,0.119-1.178,0.359
	c-0.345,0.24-0.618,0.588-0.815,1.043c-0.197,0.456-0.296,0.996-0.296,1.624c0,0.922,0.21,1.629,0.631,2.124
	c0.424,0.496,0.974,0.742,1.659,0.742c0.582,0,1.082-0.254,1.504-0.758c0.421-0.506,0.631-1.231,0.631-2.177
	C83.699,7.521,83.612,6.996,83.437,6.555"/>
<path fill="#FFFFFF" d="M45.154,4.018c-0.101-0.192-0.231-0.334-0.395-0.431c-0.165-0.097-0.348-0.144-0.552-0.144
	c-0.334,0-0.596,0.108-0.789,0.324c-0.192,0.218-0.287,0.548-0.287,0.989v6.69c0,0.45,0.106,0.8,0.32,1.042
	c0.217,0.242,0.491,0.363,0.824,0.363c0.345,0,0.625-0.115,0.842-0.35c0.219-0.236,0.325-0.587,0.325-1.055V8.546
	c0-0.943,0.058-1.587,0.172-1.933c0.159-0.429,0.407-0.768,0.745-1.014c0.339-0.245,0.717-0.367,1.129-0.367
	c0.632,0,1.053,0.202,1.266,0.606c0.213,0.404,0.319,0.986,0.319,1.749v3.86c0,0.45,0.107,0.8,0.323,1.042
	c0.215,0.242,0.493,0.363,0.838,0.363c0.339,0,0.614-0.118,0.828-0.355c0.209-0.236,0.317-0.587,0.317-1.05V7.138
	c0-0.507-0.022-0.925-0.067-1.254c-0.045-0.328-0.146-0.632-0.299-0.915c-0.237-0.486-0.595-0.862-1.076-1.129
	c-0.482-0.266-1.025-0.396-1.637-0.396c-0.627,0-1.181,0.124-1.665,0.377c-0.483,0.25-0.929,0.645-1.336,1.181v-0.28
	C45.3,4.445,45.251,4.21,45.154,4.018"/>
<path fill-rule="evenodd" clip-rule="evenodd" fill="#FFFFFF" d="M39.662,13.612h-8.944c-1.286,0-2.327-1.043-2.327-2.325V2.878
	c0-1.285,1.041-2.327,2.327-2.327h8.944c1.283,0,2.324,1.042,2.324,2.327v8.409C41.986,12.569,40.944,13.612,39.662,13.612
	 M39.662,2.878h-8.944v8.586h8.944V2.878z"/>
<polygon fill-rule="evenodd" clip-rule="evenodd" fill="#FFFFFF" points="31.407,12.77 35.642,8.719 36.527,9.645 38.656,4.183 
	33.105,6.069 33.991,6.994 29.757,11.044 "/>
<path fill="#FFFFFF" d="M5.81,19.347c-0.052,0.108-0.141,0.253-0.268,0.439l-1.5,2.294v1.894c0,0.248-0.058,0.43-0.172,0.551
	c-0.116,0.123-0.262,0.184-0.438,0.184c-0.181,0-0.326-0.061-0.439-0.18c-0.11-0.123-0.168-0.306-0.168-0.555V22.08l-1.464-2.26
	c-0.13-0.203-0.221-0.365-0.273-0.478c-0.054-0.112-0.081-0.211-0.081-0.295c0-0.14,0.055-0.259,0.162-0.359
	c0.109-0.102,0.241-0.151,0.4-0.151c0.167,0,0.294,0.045,0.377,0.138c0.086,0.095,0.215,0.281,0.391,0.562l1.119,1.81l1.134-1.81
	c0.069-0.11,0.125-0.207,0.172-0.281l0.154-0.214l0.186-0.154l0.248-0.051c0.154,0,0.282,0.049,0.384,0.149
	c0.104,0.098,0.154,0.212,0.154,0.34C5.887,19.136,5.861,19.243,5.81,19.347 M9.938,23.365c-0.103,0.28-0.253,0.521-0.449,0.721
	c-0.196,0.2-0.434,0.356-0.706,0.464c-0.272,0.107-0.581,0.159-0.921,0.159c-0.337,0-0.642-0.052-0.911-0.161
	c-0.269-0.109-0.504-0.267-0.704-0.468c-0.197-0.204-0.346-0.441-0.45-0.716c-0.103-0.275-0.153-0.58-0.153-0.915
	c0-0.336,0.051-0.645,0.156-0.922c0.103-0.282,0.25-0.521,0.446-0.718c0.192-0.198,0.428-0.354,0.704-0.46
	c0.275-0.104,0.579-0.161,0.911-0.161c0.34,0,0.647,0.057,0.921,0.166c0.276,0.109,0.511,0.262,0.709,0.465
	c0.195,0.201,0.346,0.439,0.446,0.715c0.103,0.277,0.156,0.582,0.156,0.916C10.095,22.782,10.042,23.086,9.938,23.365 M8.672,21.389
	c-0.2-0.251-0.469-0.378-0.81-0.378c-0.216,0-0.411,0.058-0.575,0.172c-0.168,0.11-0.295,0.277-0.385,0.495
	c-0.091,0.223-0.135,0.478-0.135,0.771c0,0.292,0.043,0.546,0.133,0.762c0.089,0.217,0.214,0.383,0.38,0.501
	c0.165,0.114,0.36,0.173,0.582,0.173c0.34,0,0.61-0.127,0.81-0.384c0.201-0.251,0.3-0.603,0.3-1.052
	C8.972,21.997,8.873,21.644,8.672,21.389 M14.568,24.552c-0.095,0.104-0.222,0.157-0.373,0.157c-0.152,0-0.279-0.055-0.378-0.166
	c-0.102-0.109-0.15-0.262-0.15-0.461v-0.143c-0.134,0.167-0.274,0.31-0.422,0.423c-0.147,0.114-0.309,0.2-0.483,0.256
	c-0.173,0.054-0.372,0.083-0.597,0.083c-0.27,0-0.513-0.057-0.727-0.167c-0.216-0.114-0.38-0.266-0.497-0.46
	c-0.14-0.236-0.208-0.576-0.208-1.02v-2.202c0-0.223,0.049-0.386,0.15-0.499c0.1-0.108,0.234-0.166,0.402-0.166
	c0.167,0,0.305,0.057,0.408,0.168c0.105,0.11,0.156,0.278,0.156,0.497v1.78c0,0.258,0.022,0.476,0.065,0.652
	c0.045,0.172,0.121,0.309,0.237,0.408c0.111,0.101,0.264,0.15,0.459,0.15c0.188,0,0.366-0.058,0.532-0.169
	c0.168-0.11,0.287-0.254,0.363-0.434c0.063-0.157,0.095-0.503,0.095-1.037v-1.35c0-0.218,0.052-0.386,0.157-0.497
	c0.103-0.111,0.238-0.168,0.404-0.168c0.167,0,0.301,0.057,0.402,0.166c0.099,0.113,0.152,0.276,0.152,0.499v3.222
	C14.716,24.286,14.667,24.445,14.568,24.552 M18.54,21.166c-0.093,0.087-0.196,0.132-0.306,0.132c-0.039,0-0.141-0.023-0.296-0.077
	c-0.156-0.047-0.296-0.074-0.416-0.074c-0.166,0-0.297,0.044-0.4,0.129c-0.104,0.086-0.186,0.213-0.243,0.38
	c-0.058,0.17-0.096,0.37-0.119,0.602c-0.021,0.232-0.032,0.515-0.032,0.849v0.926c0,0.228-0.054,0.397-0.161,0.509
	c-0.105,0.113-0.24,0.168-0.404,0.168c-0.161,0-0.292-0.057-0.398-0.171c-0.103-0.113-0.156-0.282-0.156-0.506v-3.093
	c0-0.5,0.183-0.75,0.544-0.75c0.188,0,0.321,0.06,0.403,0.175c0.082,0.119,0.126,0.29,0.136,0.518
	c0.132-0.228,0.271-0.399,0.411-0.518c0.14-0.115,0.328-0.175,0.563-0.175c0.236,0,0.461,0.06,0.681,0.175
	c0.222,0.119,0.333,0.271,0.333,0.466C18.681,20.964,18.634,21.076,18.54,21.166 M25.876,19.271l-0.062,0.203l-0.073,0.208
	l-1.455,3.901c-0.049,0.148-0.105,0.29-0.153,0.424c-0.055,0.135-0.111,0.253-0.181,0.354c-0.069,0.104-0.161,0.188-0.272,0.25
	c-0.115,0.067-0.254,0.098-0.415,0.098c-0.165,0-0.305-0.031-0.417-0.098c-0.114-0.059-0.207-0.146-0.274-0.25
	c-0.07-0.103-0.134-0.222-0.182-0.357c-0.053-0.131-0.103-0.273-0.158-0.421l-1.426-3.869l-0.076-0.207l-0.066-0.222l-0.026-0.199
	c0-0.137,0.054-0.264,0.168-0.378c0.112-0.116,0.25-0.171,0.418-0.171c0.209,0,0.357,0.063,0.443,0.189
	c0.086,0.125,0.173,0.329,0.262,0.604l1.359,4.002l1.363-4.031c0.072-0.212,0.123-0.357,0.161-0.443l0.176-0.223
	c0.082-0.065,0.194-0.099,0.336-0.099c0.103,0,0.199,0.025,0.288,0.078l0.208,0.208l0.079,0.255L25.876,19.271 M27.372,24.538
	c-0.105,0.114-0.243,0.171-0.405,0.171c-0.162,0-0.297-0.057-0.398-0.173c-0.102-0.118-0.153-0.285-0.153-0.504v-3.179
	c0-0.218,0.051-0.386,0.153-0.497c0.101-0.111,0.236-0.168,0.398-0.168c0.163,0,0.3,0.057,0.405,0.168
	c0.107,0.11,0.16,0.267,0.16,0.464v3.211C27.532,24.256,27.479,24.425,27.372,24.538 M26.979,19.673
	c-0.155,0-0.29-0.046-0.398-0.143c-0.11-0.096-0.166-0.229-0.166-0.402c0-0.159,0.055-0.288,0.169-0.39
	c0.115-0.102,0.245-0.154,0.395-0.154c0.146,0,0.274,0.047,0.386,0.14c0.11,0.095,0.167,0.228,0.167,0.404
	c0,0.169-0.055,0.306-0.163,0.4C27.26,19.623,27.129,19.673,26.979,19.673 M29.87,21.819c0.165,0.049,0.396,0.108,0.686,0.177
	c0.346,0.083,0.631,0.187,0.85,0.304c0.221,0.114,0.386,0.252,0.501,0.412c0.111,0.159,0.169,0.338,0.169,0.542
	c0,0.31-0.074,0.572-0.227,0.791c-0.15,0.217-0.37,0.385-0.666,0.497c-0.292,0.113-0.649,0.168-1.07,0.168
	c-0.401,0-0.743-0.061-1.031-0.184c-0.286-0.122-0.497-0.274-0.633-0.458c-0.14-0.181-0.208-0.368-0.208-0.552
	c0-0.12,0.044-0.226,0.133-0.313c0.087-0.087,0.198-0.132,0.331-0.132c0.117,0,0.208,0.03,0.27,0.087
	c0.063,0.058,0.126,0.136,0.181,0.239c0.116,0.2,0.251,0.347,0.411,0.446c0.161,0.096,0.376,0.148,0.654,0.148
	c0.223,0,0.406-0.052,0.549-0.15c0.143-0.102,0.215-0.214,0.215-0.342c0-0.194-0.073-0.338-0.224-0.429
	c-0.148-0.088-0.392-0.173-0.733-0.253c-0.384-0.096-0.698-0.198-0.939-0.299c-0.243-0.107-0.435-0.245-0.581-0.416
	c-0.143-0.17-0.218-0.379-0.218-0.631c0-0.224,0.068-0.429,0.204-0.628c0.131-0.2,0.329-0.357,0.59-0.475
	c0.259-0.12,0.576-0.18,0.943-0.18c0.289,0,0.549,0.033,0.78,0.091c0.231,0.06,0.422,0.141,0.578,0.24
	c0.152,0.102,0.27,0.212,0.35,0.334c0.082,0.124,0.123,0.243,0.123,0.359c0,0.126-0.044,0.232-0.131,0.315
	c-0.084,0.081-0.208,0.119-0.365,0.119c-0.113,0-0.213-0.031-0.294-0.095c-0.081-0.067-0.17-0.165-0.275-0.293
	c-0.084-0.11-0.186-0.198-0.3-0.262c-0.113-0.065-0.269-0.097-0.465-0.097c-0.203,0-0.37,0.042-0.503,0.126
	c-0.136,0.087-0.2,0.194-0.2,0.32c0,0.117,0.048,0.215,0.145,0.289C29.573,21.708,29.704,21.769,29.87,21.819 M33.77,24.538
	c-0.107,0.114-0.242,0.171-0.406,0.171c-0.162,0-0.295-0.057-0.398-0.173c-0.103-0.118-0.155-0.285-0.155-0.504v-3.179
	c0-0.218,0.052-0.386,0.155-0.497c0.104-0.111,0.236-0.168,0.398-0.168c0.164,0,0.299,0.057,0.406,0.168
	c0.104,0.11,0.16,0.267,0.16,0.464v3.211C33.93,24.256,33.875,24.425,33.77,24.538 M33.377,19.673c-0.156,0-0.292-0.046-0.397-0.143
	c-0.114-0.096-0.169-0.229-0.169-0.402c0-0.159,0.056-0.288,0.173-0.39c0.111-0.102,0.244-0.154,0.394-0.154
	c0.142,0,0.273,0.047,0.385,0.14c0.11,0.095,0.167,0.228,0.167,0.404c0,0.169-0.055,0.306-0.164,0.4
	C33.657,19.623,33.528,19.673,33.377,19.673 M39.088,23.332c-0.085,0.28-0.211,0.524-0.374,0.732
	c-0.166,0.205-0.365,0.366-0.598,0.478c-0.231,0.113-0.487,0.168-0.771,0.168c-0.173,0-0.333-0.021-0.485-0.061
	c-0.152-0.039-0.279-0.091-0.386-0.159c-0.108-0.068-0.197-0.135-0.272-0.208c-0.075-0.069-0.173-0.176-0.296-0.316v0.11
	c0,0.21-0.052,0.367-0.153,0.475c-0.101,0.107-0.229,0.159-0.384,0.159c-0.158,0-0.285-0.052-0.38-0.159
	c-0.093-0.108-0.142-0.264-0.142-0.475v-4.853c0-0.228,0.048-0.398,0.137-0.511c0.091-0.116,0.22-0.173,0.384-0.173
	c0.171,0,0.305,0.054,0.395,0.165c0.098,0.109,0.142,0.267,0.142,0.473v1.693c0.209-0.215,0.426-0.381,0.643-0.498
	c0.216-0.112,0.489-0.17,0.812-0.17c0.369,0,0.694,0.087,0.977,0.263c0.278,0.172,0.496,0.428,0.646,0.758
	c0.158,0.334,0.237,0.729,0.237,1.186C39.219,22.742,39.173,23.05,39.088,23.332 M37.968,21.687
	c-0.083-0.215-0.204-0.378-0.358-0.492c-0.157-0.114-0.338-0.172-0.546-0.172c-0.213,0-0.403,0.058-0.566,0.172
	c-0.171,0.114-0.298,0.282-0.397,0.5c-0.094,0.219-0.145,0.478-0.145,0.782c0,0.441,0.104,0.78,0.306,1.017
	c0.205,0.24,0.473,0.356,0.802,0.356c0.282,0,0.524-0.119,0.725-0.362c0.206-0.241,0.307-0.593,0.307-1.045
	C38.095,22.148,38.054,21.896,37.968,21.687 M40.861,24.538c-0.104,0.114-0.24,0.171-0.403,0.171c-0.167,0-0.299-0.057-0.401-0.173
	c-0.104-0.118-0.153-0.285-0.153-0.504v-3.179c0-0.218,0.048-0.386,0.153-0.497c0.102-0.111,0.234-0.168,0.401-0.168
	c0.163,0,0.298,0.057,0.403,0.168c0.108,0.11,0.16,0.267,0.16,0.464v3.211C41.021,24.256,40.969,24.425,40.861,24.538
	 M40.466,19.673c-0.152,0-0.286-0.046-0.396-0.143c-0.11-0.096-0.166-0.229-0.166-0.402c0-0.159,0.056-0.288,0.168-0.39
	c0.113-0.102,0.247-0.154,0.394-0.154c0.146,0,0.276,0.047,0.387,0.14c0.11,0.095,0.167,0.228,0.167,0.404
	c0,0.169-0.053,0.306-0.164,0.4C40.747,19.623,40.618,19.673,40.466,19.673 M42.928,24.541c-0.106,0.113-0.242,0.168-0.409,0.168
	c-0.164,0-0.297-0.057-0.399-0.173c-0.103-0.118-0.155-0.285-0.155-0.504v-4.818c0-0.223,0.051-0.391,0.15-0.505
	c0.097-0.116,0.233-0.171,0.403-0.171c0.167,0,0.304,0.055,0.41,0.169c0.103,0.112,0.155,0.28,0.155,0.506v4.818
	C43.084,24.26,43.03,24.429,42.928,24.541 M44.987,24.538c-0.105,0.114-0.242,0.171-0.407,0.171c-0.164,0-0.293-0.057-0.4-0.173
	c-0.103-0.118-0.15-0.285-0.15-0.504v-3.179c0-0.218,0.048-0.386,0.15-0.497c0.106-0.111,0.236-0.168,0.4-0.168
	c0.166,0,0.302,0.057,0.407,0.168c0.105,0.11,0.158,0.267,0.158,0.464v3.211C45.146,24.256,45.093,24.425,44.987,24.538
	 M44.594,19.673c-0.157,0-0.291-0.046-0.4-0.143c-0.113-0.096-0.165-0.229-0.165-0.402c0-0.159,0.053-0.288,0.169-0.39
	c0.114-0.102,0.244-0.154,0.395-0.154c0.144,0,0.273,0.047,0.385,0.14c0.111,0.095,0.167,0.228,0.167,0.404
	c0,0.169-0.055,0.306-0.163,0.4C44.874,19.623,44.742,19.673,44.594,19.673 M48.355,24.566c-0.197,0.096-0.481,0.143-0.849,0.143
	c-0.347,0-0.614-0.057-0.795-0.173c-0.181-0.118-0.296-0.28-0.354-0.486c-0.054-0.203-0.083-0.481-0.083-0.825V21.09H46.13
	c-0.161,0-0.287-0.038-0.372-0.113c-0.085-0.078-0.125-0.174-0.125-0.29c0-0.117,0.044-0.215,0.132-0.287
	c0.089-0.075,0.218-0.111,0.387-0.111h0.123v-0.667c0-0.18,0.005-0.323,0.017-0.422c0.006-0.102,0.034-0.189,0.077-0.263l0.19-0.186
	l0.27-0.072c0.146,0,0.272,0.054,0.39,0.159c0.075,0.072,0.123,0.158,0.142,0.26c0.021,0.102,0.03,0.246,0.03,0.433v0.758h0.41
	c0.161,0,0.277,0.036,0.362,0.111c0.084,0.072,0.128,0.17,0.128,0.287c0,0.149-0.062,0.253-0.181,0.313
	c-0.119,0.06-0.288,0.09-0.51,0.09h-0.209v2.044c0,0.173,0.006,0.306,0.021,0.402l0.1,0.225c0.052,0.061,0.136,0.088,0.258,0.088
	c0.065,0,0.153-0.01,0.263-0.033c0.114-0.022,0.203-0.036,0.265-0.036l0.242,0.108c0.075,0.072,0.11,0.161,0.11,0.267
	C48.65,24.334,48.551,24.473,48.355,24.566 M52.528,20.899c-0.026,0.095-0.056,0.191-0.087,0.288l-1.46,3.795
	c-0.125,0.334-0.247,0.596-0.367,0.785c-0.121,0.191-0.278,0.338-0.479,0.439c-0.198,0.104-0.463,0.153-0.798,0.153
	c-0.33,0-0.575-0.037-0.737-0.108c-0.164-0.067-0.248-0.199-0.248-0.386c0-0.126,0.042-0.224,0.117-0.294
	c0.078-0.067,0.192-0.103,0.347-0.103l0.176,0.024l0.183,0.024c0.129,0,0.23-0.02,0.306-0.056l0.196-0.2
	c0.06-0.094,0.128-0.23,0.205-0.413l0.1-0.248l-1.375-3.443c-0.086-0.202-0.125-0.342-0.125-0.431l0.073-0.266l0.202-0.194
	l0.271-0.077c0.16,0,0.28,0.052,0.361,0.153c0.084,0.102,0.155,0.25,0.218,0.439l0.946,2.735l0.897-2.546
	c0.069-0.204,0.135-0.365,0.189-0.482c0.058-0.117,0.123-0.194,0.183-0.238c0.062-0.04,0.156-0.061,0.274-0.061l0.241,0.07
	l0.18,0.181l0.065,0.239L52.528,20.899 M56.549,20.63c0.111,0.061,0.228,0.109,0.345,0.148c0.117,0.035,0.312,0.084,0.583,0.152
	c0.339,0.081,0.643,0.166,0.917,0.261c0.276,0.096,0.508,0.21,0.701,0.346c0.192,0.136,0.344,0.307,0.451,0.516
	c0.107,0.208,0.163,0.462,0.163,0.764c0,0.36-0.094,0.684-0.281,0.971c-0.188,0.288-0.46,0.514-0.819,0.676
	c-0.362,0.164-0.79,0.245-1.283,0.245c-0.593,0-1.08-0.112-1.465-0.335c-0.273-0.158-0.493-0.372-0.668-0.639
	c-0.168-0.267-0.253-0.527-0.253-0.781c0-0.146,0.051-0.269,0.153-0.374c0.1-0.108,0.234-0.157,0.391-0.157
	c0.131,0,0.236,0.04,0.325,0.12c0.087,0.083,0.162,0.202,0.228,0.366c0.077,0.189,0.162,0.346,0.248,0.475
	c0.089,0.128,0.212,0.233,0.374,0.316c0.161,0.081,0.372,0.123,0.635,0.123c0.361,0,0.654-0.083,0.879-0.251
	c0.223-0.165,0.336-0.375,0.336-0.622c0-0.2-0.06-0.36-0.183-0.485c-0.12-0.123-0.277-0.216-0.471-0.283
	c-0.189-0.065-0.447-0.133-0.771-0.208c-0.429-0.1-0.792-0.216-1.08-0.352c-0.294-0.136-0.523-0.316-0.693-0.549
	c-0.171-0.233-0.258-0.52-0.258-0.866c0-0.327,0.091-0.62,0.271-0.875c0.181-0.254,0.44-0.452,0.782-0.588
	c0.341-0.137,0.744-0.205,1.204-0.205c0.368,0,0.685,0.045,0.956,0.135c0.27,0.089,0.491,0.212,0.668,0.366
	c0.179,0.149,0.308,0.307,0.389,0.472c0.083,0.164,0.126,0.326,0.126,0.485c0,0.145-0.054,0.274-0.154,0.388
	c-0.104,0.116-0.23,0.176-0.386,0.176c-0.135,0-0.241-0.039-0.313-0.108c-0.075-0.068-0.152-0.181-0.235-0.337
	c-0.11-0.225-0.243-0.404-0.394-0.529c-0.154-0.126-0.397-0.19-0.736-0.19c-0.316,0-0.568,0.07-0.761,0.208
	c-0.193,0.135-0.29,0.302-0.29,0.492c0,0.121,0.035,0.224,0.1,0.311C56.342,20.493,56.435,20.566,56.549,20.63 M64.479,23.365
	c-0.105,0.28-0.255,0.521-0.451,0.721c-0.197,0.2-0.432,0.356-0.705,0.464c-0.271,0.107-0.578,0.159-0.92,0.159
	c-0.337,0-0.643-0.052-0.913-0.161c-0.27-0.109-0.502-0.267-0.702-0.468c-0.198-0.204-0.348-0.441-0.448-0.716
	c-0.106-0.275-0.155-0.58-0.155-0.915c0-0.336,0.053-0.645,0.155-0.922c0.104-0.282,0.25-0.521,0.445-0.718
	c0.192-0.198,0.429-0.354,0.705-0.46c0.274-0.104,0.58-0.161,0.913-0.161c0.339,0,0.646,0.057,0.92,0.166
	c0.277,0.109,0.515,0.262,0.708,0.465c0.196,0.201,0.347,0.439,0.451,0.715c0.1,0.277,0.152,0.582,0.152,0.916
	C64.635,22.782,64.582,23.086,64.479,23.365 M63.212,21.389c-0.2-0.251-0.469-0.378-0.808-0.378c-0.219,0-0.411,0.058-0.576,0.172
	c-0.167,0.11-0.294,0.277-0.386,0.495c-0.09,0.223-0.136,0.478-0.136,0.771c0,0.292,0.046,0.546,0.136,0.762
	c0.086,0.217,0.212,0.383,0.377,0.501c0.167,0.114,0.362,0.173,0.585,0.173c0.339,0,0.608-0.127,0.808-0.384
	c0.202-0.251,0.301-0.603,0.301-1.052C63.513,21.997,63.414,21.644,63.212,21.389 M66.266,24.541
	c-0.105,0.113-0.24,0.168-0.409,0.168c-0.163,0-0.295-0.057-0.398-0.173c-0.101-0.118-0.152-0.285-0.152-0.504v-4.818
	c0-0.223,0.049-0.391,0.148-0.505c0.1-0.116,0.236-0.171,0.403-0.171c0.169,0,0.307,0.055,0.41,0.169
	c0.104,0.112,0.155,0.28,0.155,0.506v4.818C66.421,24.26,66.371,24.429,66.266,24.541 M71.17,24.552
	c-0.095,0.104-0.22,0.157-0.373,0.157c-0.151,0-0.28-0.055-0.377-0.166c-0.102-0.109-0.151-0.262-0.151-0.461v-0.143
	c-0.132,0.167-0.273,0.31-0.422,0.423c-0.146,0.114-0.309,0.2-0.482,0.256c-0.173,0.054-0.375,0.083-0.597,0.083
	c-0.27,0-0.515-0.057-0.727-0.167c-0.215-0.114-0.379-0.266-0.496-0.46c-0.142-0.236-0.209-0.576-0.209-1.02v-2.202
	c0-0.223,0.047-0.386,0.151-0.499c0.102-0.108,0.234-0.166,0.399-0.166c0.173,0,0.305,0.057,0.411,0.168
	c0.103,0.11,0.156,0.278,0.156,0.497v1.78c0,0.258,0.019,0.476,0.063,0.652c0.045,0.172,0.128,0.309,0.236,0.408
	c0.11,0.101,0.269,0.15,0.462,0.15c0.187,0,0.363-0.058,0.534-0.169c0.164-0.11,0.285-0.254,0.363-0.434
	c0.062-0.157,0.094-0.503,0.094-1.037v-1.35c0-0.218,0.052-0.386,0.154-0.497c0.104-0.111,0.237-0.168,0.405-0.168
	c0.17,0,0.303,0.057,0.401,0.166c0.101,0.113,0.152,0.276,0.152,0.499v3.222C71.318,24.286,71.268,24.445,71.17,24.552
	 M74.484,24.566c-0.197,0.096-0.477,0.143-0.846,0.143c-0.35,0-0.616-0.057-0.794-0.173c-0.181-0.118-0.298-0.28-0.357-0.486
	c-0.054-0.203-0.082-0.481-0.082-0.825V21.09h-0.146c-0.162,0-0.282-0.038-0.368-0.113c-0.088-0.078-0.129-0.174-0.129-0.29
	c0-0.117,0.045-0.215,0.133-0.287c0.089-0.075,0.219-0.111,0.389-0.111h0.122v-0.667c0-0.18,0.005-0.323,0.013-0.422
	c0.009-0.102,0.037-0.189,0.083-0.263l0.188-0.186c0.08-0.048,0.171-0.072,0.273-0.072c0.142,0,0.271,0.054,0.387,0.159
	c0.075,0.072,0.123,0.158,0.146,0.26c0.018,0.102,0.029,0.246,0.029,0.433v0.758h0.408c0.157,0,0.28,0.036,0.363,0.111
	c0.084,0.072,0.127,0.17,0.127,0.287c0,0.149-0.061,0.253-0.18,0.313c-0.119,0.06-0.291,0.09-0.511,0.09h-0.208v2.044
	c0,0.173,0.005,0.306,0.016,0.402l0.1,0.225c0.051,0.061,0.141,0.088,0.257,0.088c0.068,0,0.159-0.01,0.27-0.033
	c0.111-0.022,0.2-0.036,0.262-0.036l0.244,0.108c0.071,0.072,0.107,0.161,0.107,0.267C74.779,24.334,74.68,24.473,74.484,24.566
	 M75.937,24.538c-0.105,0.114-0.239,0.171-0.403,0.171c-0.166,0-0.296-0.057-0.401-0.173c-0.099-0.118-0.151-0.285-0.151-0.504
	v-3.179c0-0.218,0.052-0.386,0.151-0.497c0.105-0.111,0.235-0.168,0.401-0.168c0.164,0,0.298,0.057,0.403,0.168
	c0.105,0.11,0.161,0.267,0.161,0.464v3.211C76.097,24.256,76.042,24.425,75.937,24.538 M75.543,19.673
	c-0.152,0-0.288-0.046-0.397-0.143c-0.11-0.096-0.164-0.229-0.164-0.402c0-0.159,0.054-0.288,0.168-0.39
	c0.113-0.102,0.243-0.154,0.393-0.154c0.146,0,0.274,0.047,0.387,0.14c0.109,0.095,0.167,0.228,0.167,0.404
	c0,0.169-0.055,0.306-0.166,0.4C75.821,19.623,75.695,19.673,75.543,19.673 M81.069,23.365c-0.104,0.28-0.255,0.521-0.448,0.721
	c-0.197,0.2-0.431,0.356-0.704,0.464c-0.277,0.107-0.583,0.159-0.921,0.159c-0.339,0-0.645-0.052-0.914-0.161
	c-0.271-0.109-0.503-0.267-0.703-0.468c-0.195-0.204-0.347-0.441-0.449-0.716c-0.104-0.275-0.156-0.58-0.156-0.915
	c0-0.336,0.055-0.645,0.159-0.922c0.104-0.282,0.254-0.521,0.446-0.718c0.195-0.198,0.425-0.354,0.703-0.46
	c0.273-0.104,0.58-0.161,0.914-0.161c0.337,0,0.644,0.057,0.921,0.166c0.275,0.109,0.51,0.262,0.704,0.465
	c0.197,0.201,0.348,0.439,0.452,0.715c0.103,0.277,0.152,0.582,0.152,0.916C81.225,22.782,81.176,23.086,81.069,23.365
	 M79.803,21.389c-0.201-0.251-0.469-0.378-0.807-0.378c-0.22,0-0.414,0.058-0.576,0.172c-0.167,0.11-0.298,0.277-0.387,0.495
	c-0.09,0.223-0.136,0.478-0.136,0.771c0,0.292,0.045,0.546,0.133,0.762c0.092,0.217,0.213,0.383,0.381,0.501
	c0.164,0.114,0.359,0.173,0.585,0.173c0.337,0,0.606-0.127,0.807-0.384c0.202-0.251,0.302-0.603,0.302-1.052
	C80.104,21.997,80.004,21.644,79.803,21.389 M85.693,24.538c-0.103,0.114-0.236,0.171-0.4,0.171c-0.165,0-0.301-0.057-0.404-0.173
	c-0.104-0.118-0.155-0.285-0.155-0.504V22.18c0-0.366-0.051-0.646-0.157-0.839c-0.1-0.195-0.308-0.293-0.608-0.293
	c-0.2,0-0.381,0.062-0.545,0.178c-0.165,0.118-0.283,0.281-0.36,0.488c-0.055,0.165-0.083,0.476-0.083,0.927v1.391
	c0,0.228-0.053,0.397-0.155,0.509c-0.105,0.113-0.243,0.168-0.411,0.168c-0.16,0-0.292-0.057-0.394-0.173
	c-0.104-0.118-0.16-0.285-0.16-0.504V20.82c0-0.211,0.051-0.369,0.14-0.474c0.094-0.103,0.222-0.158,0.383-0.158
	c0.098,0,0.188,0.024,0.264,0.071l0.194,0.207c0.044,0.093,0.069,0.205,0.069,0.338v0.134c0.197-0.257,0.413-0.448,0.646-0.568
	c0.229-0.121,0.5-0.182,0.802-0.182c0.295,0,0.558,0.068,0.788,0.192c0.234,0.13,0.409,0.309,0.524,0.542
	c0.073,0.133,0.12,0.281,0.143,0.439c0.021,0.158,0.029,0.358,0.029,0.604v2.065C85.844,24.256,85.793,24.425,85.693,24.538"/>
</svg>
